{
  "options": {
    "fill_vertical": true,
    "fill_horizontal": true,
    "zoom_detail_factor": 1
  },
  "default_zoom": {
    "tmin": "2017-09-08T15:05:00.000Z",
    "tmax": "2017-09-08T15:52:00.000Z"
  },
  "global_margins": {
    "top": 0,
    "bottom": 0,
    "left": 65,
    "right": 30
  },
  "subplots": [
    {
      "title": "Swarm orbit and altitude",
      "visible": true,
      "minimized": true,
      "legend_visible": false,
      "globe_visible": true,
      "ydomain": {
        "default": [
          430,
          480
        ],
        "bounds": [
          200,
          600
        ]
      },
      "y_label": "Altitude (km)",
      "scale": "linear",
      "ytick_format": "d",
      "xaxis_annotation": "hidden",
      "yaxis_annotation": "visible",
      "height": 130,
      "annot_options": {
        "annot_horizontal_grid_lines": [],
        "annot_text_items": []
      },
      "margins": {
        "top": 20,
        "bottom": 10
      },
      "options_3d": {
        "camera_attached_to": "Sun",
        "x_position": 0.5
      },
      "plot_elements": [
        {
          "title": "Swarm A orbit",
          "visible": true,
          "minimized": true,
          "server": "https://data.spaceweather.knmi.nl/hapi",
          "cadence_alternative_datasets_mode": "off",
          "zoom_detail_factor": 1,
          "plot_options": {
            "plot_type": "orbit_on_globe",
            "stroke": "#006CD9",
            "stroke-width": 2.5,
            "stroke-opacity": 1,
            "fill": "#006CD9",
            "fill-opacity": 0.16,
            "label": "A",
            "label_position_x": 0.75,
            "label_position_y": 0.5,
            "mirror_zero_x": false,
            "curve_type": "linear",
            "parameter_offset_remove_mean": false,
            "parameter_offset": 0,
            "parameter_multiplier": 1,
            "baseline_mode": "",
            "coordinate_parameter_multiplier": 0.0001569612306
          },
          "dataset": "sw_oper_moda_sc_PT30S",
          "parameter": "x_gcrs",
          "x_coordinate_parameter": "x_gcrs",
          "y_coordinate_parameter": "y_gcrs",
          "z_coordinate_parameter": "z_gcrs",
          "time_parameter": "time"
        },
        {
          "title": "Swarm A altitude long-term min/max",
          "visible": true,
          "minimized": true,
          "server": "https://data.spaceweather.knmi.nl/hapi",
          "cadence_alternative_datasets_mode": "x_relations",
          "parameter_multiplier": 1,
          "parameter_offset": 0,
          "parameter_offset_remove_mean": false,
          "zoom_detail_factor": 1,
          "plot_options": {
            "plot_type": "area",
            "stroke": "#006CD9",
            "stroke-width": 0,
            "stroke-opacity": "1",
            "fill": "#006CD9",
            "fill-opacity": 0.1,
            "mirror_zero_x": false,
            "curve_type": "step",
            "parameter_offset_remove_mean": false,
            "parameter_offset": 0,
            "parameter_multiplier": 0.001,
            "baseline_mode": "parameter"
          },
          "dataset": "sw_oper_moda_sc_aggregate",
          "parameter": "height_max",
          "time_parameter": "time",
          "baseline_parameter": ""
        },
        {
          "title": "Swarm A altitude",
          "visible": true,
          "minimized": true,
          "server": "https://data.spaceweather.knmi.nl/hapi",
          "cadence_alternative_datasets_mode": "x_relations",
          "zoom_detail_factor": 1,
          "plot_options": {
            "plot_type": "line",
            "stroke": "#006CD9",
            "stroke-width": 2.5,
            "stroke-opacity": 1,
            "fill": "#006CD9",
            "fill-opacity": 0.16,
            "mirror_zero_x": false,
            "curve_type": "linear",
            "parameter_offset_remove_mean": false,
            "parameter_offset": 0,
            "parameter_multiplier": 0.001,
            "baseline_mode": "",
            "coordinate_parameter_multiplier": 0.0001569612306
          },
          "dataset": "sw_oper_moda_sc",
          "parameter": "height",
          "time_parameter": "time"
        }
      ]
    },
    {
      "title": "Field-aligned current",
      "visible": true,
      "minimized": true,
      "ydomain": {
        "default": [
          -15,
          15
        ],
        "bounds": [
          -15,
          15
        ],
        "mirror": false
      },
      "y_label": "FAC density (μA/m²)",
      "scale": "linear",
      "ytick_format": "d",
      "xaxis_annotation": "hidden",
      "yaxis_annotation": "visible",
      "height": 150,
      "annot_options": {
        "annot_horizontal_grid_lines": [],
        "annot_text_items": []
      },
      "margins": {
        "top": 10,
        "bottom": 10
      },
      "plot_elements": [
        {
          "title": "FAC",
          "visible": true,
          "minimized": true,
          "server": "https://vires.services/hapi",
          "cadence_alternative_datasets_mode": "off",
          "zoom_detail_factor": 4,
          "refetch_interval_seconds": 86400,
          "plot_options": {
            "plot_type": "area",
            "stroke": "#000000",
            "stroke-width": "2",
            "stroke-opacity": "1",
            "fill": "#888888",
            "fill-opacity": "1",
            "mirror_zero_x": false,
            "curve_type": "linear",
            "parameter_multiplier": 1,
            "parameter_offset": 0,
            "parameter_offset_remove_mean": false
          },
          "dataset": "SW_OPER_FACATMS_2F",
          "parameter": "FAC",
          "time_parameter": "Timestamp"
        }
      ],
      "legend_visible": false
    },
    {
      "title": "Electron temperature",
      "visible": true,
      "minimized": true,
      "legend_visible": false,
      "ydomain": {
        "default": [
          0,
          8
        ],
        "bounds": [
          0,
          8
        ],
        "mirror": false
      },
      "y_label": "Te (10³ K)",
      "scale": "linear",
      "ytick_format": "auto",
      "xaxis_annotation": "hidden",
      "yaxis_annotation": "visible",
      "height": 130,
      "annot_options": {
        "annot_horizontal_grid_lines": [],
        "annot_text_items": []
      },
      "margins": {
        "top": 20,
        "bottom": 10
      },
      "plot_elements": [
        {
          "title": "Te",
          "visible": true,
          "minimized": true,
          "server": "https://vires.services/hapi",
          "cadence_alternative_datasets_mode": "off",
          "zoom_detail_factor": 4,
          "plot_options": {
            "plot_type": "line",
            "stroke": "#ae4242",
            "stroke-width": 2.5,
            "stroke-opacity": 1,
            "fill": "#006CD9",
            "fill-opacity": 0.16,
            "mirror_zero_x": false,
            "curve_type": "linear",
            "parameter_offset_remove_mean": false,
            "parameter_offset": 0,
            "parameter_multiplier": 0.001,
            "baseline_mode": ""
          },
          "dataset": "SW_OPER_IPDAIRR_2F",
          "parameter": "Te",
          "time_parameter": "Timestamp",
          "refetch_interval_seconds": 86400
        }
      ]
    },
    {
      "title": "Electron density",
      "visible": true,
      "minimized": true,
      "legend_visible": true,
      "ydomain": {
        "default": [
          0,
          1
        ],
        "bounds": [
          0,
          6
        ],
        "mirror": false
      },
      "y_label": "Ne (10⁶/cm³)",
      "scale": "linear",
      "ytick_format": "auto",
      "xaxis_annotation": "hidden",
      "yaxis_annotation": "visible",
      "height": 150,
      "annot_options": {
        "annot_horizontal_grid_lines": [],
        "annot_text_items": []
      },
      "margins": {
        "top": 10,
        "bottom": 10
      },
      "plot_elements": [
        {
          "title": "Background Ne",
          "visible": true,
          "minimized": true,
          "server": "https://vires.services/hapi",
          "cadence_alternative_datasets_mode": "off",
          "zoom_detail_factor": 4,
          "plot_options": {
            "plot_type": "area",
            "stroke": "#006CD9",
            "stroke-width": 1,
            "stroke-opacity": 0.5,
            "fill": "#006CD9",
            "fill-opacity": 0.15,
            "mirror_zero_x": false,
            "curve_type": "linear",
            "parameter_offset_remove_mean": false,
            "parameter_offset": 0,
            "parameter_multiplier": 0.000001,
            "baseline_mode": ""
          },
          "dataset": "SW_OPER_IPDAIRR_2F",
          "parameter": "Background_Ne",
          "time_parameter": "Timestamp",
          "refetch_interval_seconds": 86400
        },
        {
          "title": "Ne",
          "visible": true,
          "minimized": true,
          "server": "https://vires.services/hapi",
          "cadence_alternative_datasets_mode": "off",
          "zoom_detail_factor": 4,
          "plot_options": {
            "plot_type": "line",
            "stroke": "#006CD9",
            "stroke-width": 2.5,
            "stroke-opacity": 1,
            "fill": "#006CD9",
            "fill-opacity": 0.16,
            "mirror_zero_x": false,
            "curve_type": "linear",
            "parameter_offset_remove_mean": false,
            "parameter_offset": 0,
            "parameter_multiplier": 0.000001,
            "baseline_mode": ""
          },
          "dataset": "SW_OPER_IPDAIRR_2F",
          "parameter": "Ne",
          "time_parameter": "Timestamp",
          "refetch_interval_seconds": 86400
        }
      ]
    },
    {
      "title": "VTEC",
      "visible": true,
      "minimized": true,
      "ydomain": {
        "default": [
          0,
          15
        ],
        "bounds": [
          "0",
          20
        ],
        "mirror": false
      },
      "y_label": "VTEC (TECU)",
      "scale": "linear",
      "ytick_format": "d",
      "xaxis_annotation": "hidden",
      "yaxis_annotation": "visible",
      "height": 150,
      "annot_options": {
        "annot_horizontal_grid_lines": [],
        "annot_text_items": []
      },
      "margins": {
        "top": 10,
        "bottom": 10
      },
      "plot_elements": [
        {
          "title": "VTEC",
          "visible": true,
          "minimized": true,
          "server": "https://vires.services/hapi",
          "cadence_alternative_datasets_mode": "off",
          "zoom_detail_factor": 4,
          "refetch_interval_seconds": 86400,
          "plot_options": {
            "plot_type": "area",
            "stroke": "#006bd9",
            "stroke-width": "2",
            "stroke-opacity": "1",
            "fill": "#006bd9",
            "fill-opacity": 0.15,
            "mirror_zero_x": false,
            "curve_type": "linear",
            "parameter_multiplier": 1,
            "parameter_offset": 0,
            "parameter_offset_remove_mean": false,
            "baseline_mode": ""
          },
          "dataset": "SW_OPER_IPDAIRR_2F",
          "parameter": "mVTEC",
          "time_parameter": "Timestamp"
        }
      ],
      "legend_visible": true
    },
    {
      "title": "∇Ne",
      "visible": true,
      "minimized": true,
      "ydomain": {
        "default": [
          -5,
          5
        ],
        "bounds": [
          -10,
          10
        ],
        "mirror": false
      },
      "y_label": "∇Ne (cm³/m)",
      "scale": "linear",
      "ytick_format": "d",
      "xaxis_annotation": "hidden",
      "yaxis_annotation": "visible",
      "height": 150,
      "annot_options": {
        "annot_horizontal_grid_lines": [],
        "annot_text_items": []
      },
      "margins": {
        "top": 10,
        "bottom": 10
      },
      "plot_elements": [
        {
          "title": "∇Ne 20 km",
          "visible": true,
          "minimized": true,
          "server": "https://vires.services/hapi",
          "cadence_alternative_datasets_mode": "off",
          "zoom_detail_factor": 4,
          "refetch_interval_seconds": 86400,
          "plot_options": {
            "plot_type": "line",
            "stroke": "#fe6d6c",
            "stroke-width": 1.5,
            "stroke-opacity": "1",
            "fill": "#888888",
            "fill-opacity": "1",
            "mirror_zero_x": false,
            "curve_type": "linear",
            "parameter_multiplier": 1,
            "parameter_offset": 0,
            "parameter_offset_remove_mean": false
          },
          "dataset": "SW_OPER_IPDAIRR_2F",
          "parameter": "Grad_Ne_at_20km",
          "time_parameter": "Timestamp"
        },
        {
          "title": "∇Ne 50 km",
          "visible": true,
          "minimized": true,
          "server": "https://vires.services/hapi",
          "cadence_alternative_datasets_mode": "off",
          "zoom_detail_factor": 4,
          "refetch_interval_seconds": 86400,
          "plot_options": {
            "plot_type": "line",
            "stroke": "#000000",
            "stroke-width": "1",
            "stroke-opacity": "1",
            "fill": "#888888",
            "fill-opacity": "1",
            "mirror_zero_x": false,
            "curve_type": "linear",
            "parameter_multiplier": 1,
            "parameter_offset": 0,
            "parameter_offset_remove_mean": false
          },
          "dataset": "SW_OPER_IPDAIRR_2F",
          "parameter": "Grad_Ne_at_50km",
          "time_parameter": "Timestamp"
        },
        {
          "title": "∇Ne 100 km",
          "visible": true,
          "minimized": true,
          "server": "https://vires.services/hapi",
          "cadence_alternative_datasets_mode": "off",
          "zoom_detail_factor": 4,
          "refetch_interval_seconds": 86400,
          "plot_options": {
            "plot_type": "line",
            "stroke": "#31963d",
            "stroke-width": 1.5,
            "stroke-opacity": "1",
            "fill": "#888888",
            "fill-opacity": "1",
            "mirror_zero_x": false,
            "curve_type": "linear",
            "parameter_multiplier": 1,
            "parameter_offset": 0,
            "parameter_offset_remove_mean": false
          },
          "dataset": "SW_OPER_IPDAIRR_2F",
          "parameter": "Grad_Ne_at_100km",
          "time_parameter": "Timestamp"
        }
      ],
      "legend_visible": true
    },
    {
      "title": "ΔNe",
      "visible": true,
      "minimized": true,
      "ydomain": {
        "default": [
          0,
          5
        ],
        "bounds": [
          "0",
          10
        ],
        "mirror": false
      },
      "y_label": "ΔNe (10⁴/cm⁻³)",
      "scale": "linear",
      "ytick_format": "d",
      "xaxis_annotation": "hidden",
      "yaxis_annotation": "visible",
      "height": 150,
      "annot_options": {
        "annot_horizontal_grid_lines": [],
        "annot_text_items": []
      },
      "margins": {
        "top": 10,
        "bottom": 10
      },
      "plot_elements": [
        {
          "title": "ΔNe 40s",
          "visible": true,
          "minimized": true,
          "server": "https://vires.services/hapi",
          "cadence_alternative_datasets_mode": "off",
          "zoom_detail_factor": 4,
          "refetch_interval_seconds": 86400,
          "plot_options": {
            "plot_type": "line",
            "stroke": "#196fbd",
            "stroke-width": "1",
            "stroke-opacity": "1",
            "fill": "#000000",
            "fill-opacity": "0.2",
            "mirror_zero_x": false,
            "curve_type": "linear",
            "parameter_multiplier": 0.0001,
            "parameter_offset": 0,
            "parameter_offset_remove_mean": false,
            "baseline_mode": ""
          },
          "dataset": "SW_OPER_IPDAIRR_2F",
          "parameter": "delta_Ne40s",
          "time_parameter": "Timestamp"
        },
        {
          "title": "ΔNe 20s",
          "visible": true,
          "minimized": true,
          "server": "https://vires.services/hapi",
          "cadence_alternative_datasets_mode": "off",
          "zoom_detail_factor": 4,
          "refetch_interval_seconds": 86400,
          "plot_options": {
            "plot_type": "line",
            "stroke": "#000000",
            "stroke-width": "1",
            "stroke-opacity": "1",
            "fill": "#000000",
            "fill-opacity": "0.2",
            "mirror_zero_x": false,
            "curve_type": "linear",
            "parameter_multiplier": 0.0001,
            "parameter_offset": 0,
            "parameter_offset_remove_mean": false,
            "baseline_mode": ""
          },
          "dataset": "SW_OPER_IPDAIRR_2F",
          "parameter": "delta_Ne20s",
          "time_parameter": "Timestamp"
        },
        {
          "title": "ΔNe 10s",
          "visible": true,
          "minimized": true,
          "server": "https://vires.services/hapi",
          "cadence_alternative_datasets_mode": "off",
          "zoom_detail_factor": 4,
          "refetch_interval_seconds": 86400,
          "plot_options": {
            "plot_type": "line",
            "stroke": "#ff5353",
            "stroke-width": "1",
            "stroke-opacity": "1",
            "fill": "#006CD9",
            "fill-opacity": "0.2",
            "mirror_zero_x": false,
            "curve_type": "linear",
            "parameter_multiplier": 0.0001,
            "parameter_offset": 0,
            "parameter_offset_remove_mean": false,
            "baseline_mode": ""
          },
          "dataset": "SW_OPER_IPDAIRR_2F",
          "parameter": "delta_Ne10s",
          "time_parameter": "Timestamp"
        }
      ],
      "legend_visible": true
    },
    {
      "title": "Flags",
      "visible": true,
      "minimized": true,
      "ydomain": {
        "default": [
          -1,
          4.5
        ],
        "bounds": [
          -5,
          5
        ],
        "mirror": false
      },
      "y_label": "Flags",
      "scale": "linear",
      "ytick_format": "d",
      "xaxis_annotation": "visible",
      "yaxis_annotation": "visible",
      "height": 150,
      "annot_options": {
        "annot_horizontal_grid_lines": [],
        "annot_text_items": []
      },
      "margins": {
        "top": 10,
        "bottom": 40
      },
      "plot_elements": [
        {
          "title": "Region flag",
          "visible": true,
          "minimized": true,
          "server": "https://vires.services/hapi",
          "cadence_alternative_datasets_mode": "off",
          "zoom_detail_factor": 4,
          "refetch_interval_seconds": 86400,
          "plot_options": {
            "stroke": "#1a70bd",
            "stroke-width": "2",
            "stroke-opacity": "1",
            "fill": "#888888",
            "fill-opacity": "1",
            "mirror_zero_x": false,
            "parameter_multiplier": 1,
            "parameter_offset_remove_mean": false,
            "parameter_offset": 0,
            "plot_type": "line",
            "curve_type": "linear",
            "baseline_mode": ""
          },
          "dataset": "SW_OPER_IPDAIRR_2F",
          "parameter": "Ionosphere_region_flag",
          "time_parameter": "Timestamp"
        },
        {
          "title": "PCP flag",
          "visible": true,
          "minimized": true,
          "server": "https://vires.services/hapi",
          "cadence_alternative_datasets_mode": "off",
          "zoom_detail_factor": 4,
          "refetch_interval_seconds": 86400,
          "plot_options": {
            "stroke": "#32c335",
            "stroke-width": "2",
            "stroke-opacity": "1",
            "fill": "#888888",
            "fill-opacity": "1",
            "mirror_zero_x": false,
            "parameter_multiplier": 1,
            "parameter_offset_remove_mean": false,
            "parameter_offset": 0,
            "plot_type": "line",
            "curve_type": "linear",
            "baseline_mode": ""
          },
          "dataset": "SW_OPER_IPDAIRR_2F",
          "parameter": "PCP_flag",
          "time_parameter": "Timestamp"
        },
        {
          "title": "IBI flag",
          "visible": true,
          "minimized": true,
          "server": "https://vires.services/hapi",
          "cadence_alternative_datasets_mode": "off",
          "zoom_detail_factor": 4,
          "refetch_interval_seconds": 86400,
          "plot_options": {
            "stroke": "#c33cc3",
            "stroke-width": "2",
            "stroke-opacity": "1",
            "fill": "#888888",
            "fill-opacity": "1",
            "mirror_zero_x": false,
            "parameter_multiplier": 1,
            "parameter_offset_remove_mean": false,
            "parameter_offset": 0,
            "plot_type": "line",
            "curve_type": "linear",
            "baseline_mode": ""
          },
          "dataset": "SW_OPER_IPDAIRR_2F",
          "parameter": "IBI_flag",
          "time_parameter": "Timestamp"
        }
      ],
      "legend_visible": true
    }
  ]
}