{
  "options": {
    "fill_vertical": true,
    "fill_horizontal": true,
    "zoom_detail_factor": 1
  },
  "default_zoom": {
    "tmin": "2028-08-01T00:00:00Z",
    "tmax": "2028-08-02T00:00:00Z"
  },
  "global_margins": {
    "top": 0,
    "bottom": 0,
    "left": 65,
    "right": 30
  },
  "subplots": [
    {
      "title": "GDC orbits 3D",
      "visible": true,
      "legend_visible": false,
      "globe_visible": true,
      "ydomain": {
        "default": [
          400,
          550
        ],
        "bounds": [
          200,
          600
        ]
      },
      "y_label": "",
      "scale": "linear",
      "ytick_format": "d",
      "xaxis_annotation": "visible",
      "yaxis_annotation": "hidden",
      "height": 300,
      "annot_options": {
        "annot_horizontal_grid_lines": [],
        "annot_text_items": []
      },
      "margins": {
        "top": 20,
        "bottom": 10
      },
      "options_3d": {
        "camera_attached_to": "Sun",
        "x_position": 0.5
      },
      "plot_elements": [
        {
          "title": "GDC 1 orbit",
          "visible": true,
          "plot_options": {
            "plot_type": "orbit_on_globe",
            "stroke": "#1f77b4",
            "stroke-width": 2.5,
            "stroke-opacity": 1,
            "fill": "#1f77b4",
            "fill-opacity": 0.16,
            "label": "1",
            "label_position_x": 0.75,
            "label_position_y": 0.5,
            "mirror_zero_x": false,
            "curve_type": "linear",
            "baseline_mode": ""
          },
          "data": {
            "server": "https://data.spaceweather.knmi.nl/hapi",
            "dataset": "gdc_sat01_orbit",
            "parameter": "x_gcrs",
            "time_parameter": "time",
            "x_coordinate_parameter": "x_gcrs",
            "y_coordinate_parameter": "y_gcrs",
            "z_coordinate_parameter": "z_gcrs",
            "cadence_alternative_datasets_mode": "x_relations",
            "zoom_detail_factor": 1.0
          },
          "data_transforms": {
            "parameter_multiplier": 1,
            "parameter_offset": 0,
            "parameter_offset_remove_mean": false,
            "coordinate_parameter_multiplier": 0.0001569612306
          }
        },
        {
          "title": "GDC 2 orbit",
          "visible": true,
          "plot_options": {
            "plot_type": "orbit_on_globe",
            "stroke": "#aec7e8",
            "stroke-width": 2.5,
            "stroke-opacity": 1,
            "fill": "#aec7e8",
            "fill-opacity": 0.16,
            "label": "2",
            "label_position_x": 0.75,
            "label_position_y": 0.5,
            "mirror_zero_x": false,
            "curve_type": "linear",
            "baseline_mode": ""
          },
          "data": {
            "server": "https://data.spaceweather.knmi.nl/hapi",
            "dataset": "gdc_sat02_orbit",
            "parameter": "x_gcrs",
            "time_parameter": "time",
            "x_coordinate_parameter": "x_gcrs",
            "y_coordinate_parameter": "y_gcrs",
            "z_coordinate_parameter": "z_gcrs",
            "cadence_alternative_datasets_mode": "x_relations",
            "zoom_detail_factor": 1.0
          },
          "data_transforms": {
            "parameter_multiplier": 1,
            "parameter_offset": 0,
            "parameter_offset_remove_mean": false,
            "coordinate_parameter_multiplier": 0.0001569612306
          }
        },
        {
          "title": "GDC 3 orbit",
          "visible": true,
          "plot_options": {
            "plot_type": "orbit_on_globe",
            "stroke": "#ff7f0e",
            "stroke-width": 2.5,
            "stroke-opacity": 1,
            "fill": "#ff7f0e",
            "fill-opacity": 0.16,
            "label": "3",
            "label_position_x": 0.75,
            "label_position_y": 0.5,
            "mirror_zero_x": false,
            "curve_type": "linear",
            "baseline_mode": ""
          },
          "data": {
            "server": "https://data.spaceweather.knmi.nl/hapi",
            "dataset": "gdc_sat03_orbit",
            "parameter": "x_gcrs",
            "time_parameter": "time",
            "x_coordinate_parameter": "x_gcrs",
            "y_coordinate_parameter": "y_gcrs",
            "z_coordinate_parameter": "z_gcrs",
            "cadence_alternative_datasets_mode": "x_relations",
            "zoom_detail_factor": 1.0
          },
          "data_transforms": {
            "parameter_multiplier": 1,
            "parameter_offset": 0,
            "parameter_offset_remove_mean": false,
            "coordinate_parameter_multiplier": 0.0001569612306
          }
        },
        {
          "title": "GDC 4 orbit",
          "visible": true,
          "plot_options": {
            "plot_type": "orbit_on_globe",
            "stroke": "#ffbb78",
            "stroke-width": 2.5,
            "stroke-opacity": 1,
            "fill": "#ffbb78",
            "fill-opacity": 0.16,
            "label": "4",
            "label_position_x": 0.75,
            "label_position_y": 0.5,
            "mirror_zero_x": false,
            "curve_type": "linear",
            "baseline_mode": ""
          },
          "data": {
            "server": "https://data.spaceweather.knmi.nl/hapi",
            "dataset": "gdc_sat04_orbit",
            "parameter": "x_gcrs",
            "time_parameter": "time",
            "x_coordinate_parameter": "x_gcrs",
            "y_coordinate_parameter": "y_gcrs",
            "z_coordinate_parameter": "z_gcrs",
            "cadence_alternative_datasets_mode": "x_relations",
            "zoom_detail_factor": 1.0
          },
          "data_transforms": {
            "parameter_multiplier": 1,
            "parameter_offset": 0,
            "parameter_offset_remove_mean": false,
            "coordinate_parameter_multiplier": 0.0001569612306
          }
        },
        {
          "title": "GDC 5 orbit",
          "visible": true,
          "plot_options": {
            "plot_type": "orbit_on_globe",
            "stroke": "#2ca02c",
            "stroke-width": 2.5,
            "stroke-opacity": 1,
            "fill": "#2ca02c",
            "fill-opacity": 0.16,
            "label": "5",
            "label_position_x": 0.75,
            "label_position_y": 0.5,
            "mirror_zero_x": false,
            "curve_type": "linear",
            "baseline_mode": ""
          },
          "data": {
            "server": "https://data.spaceweather.knmi.nl/hapi",
            "dataset": "gdc_sat05_orbit",
            "parameter": "x_gcrs",
            "time_parameter": "time",
            "x_coordinate_parameter": "x_gcrs",
            "y_coordinate_parameter": "y_gcrs",
            "z_coordinate_parameter": "z_gcrs",
            "cadence_alternative_datasets_mode": "x_relations",
            "zoom_detail_factor": 1.0
          },
          "data_transforms": {
            "parameter_multiplier": 1,
            "parameter_offset": 0,
            "parameter_offset_remove_mean": false,
            "coordinate_parameter_multiplier": 0.0001569612306
          }
        },
        {
          "title": "GDC 6 orbit",
          "visible": true,
          "plot_options": {
            "plot_type": "orbit_on_globe",
            "stroke": "#98df8a",
            "stroke-width": 2.5,
            "stroke-opacity": 1,
            "fill": "#98df8a",
            "fill-opacity": 0.16,
            "label": "6",
            "label_position_x": 0.75,
            "label_position_y": 0.5,
            "mirror_zero_x": false,
            "curve_type": "linear",
            "baseline_mode": ""
          },
          "data": {
            "server": "https://data.spaceweather.knmi.nl/hapi",
            "dataset": "gdc_sat06_orbit",
            "parameter": "x_gcrs",
            "time_parameter": "time",
            "x_coordinate_parameter": "x_gcrs",
            "y_coordinate_parameter": "y_gcrs",
            "z_coordinate_parameter": "z_gcrs",
            "cadence_alternative_datasets_mode": "x_relations",
            "zoom_detail_factor": 1.0
          },
          "data_transforms": {
            "parameter_multiplier": 1,
            "parameter_offset": 0,
            "parameter_offset_remove_mean": false,
            "coordinate_parameter_multiplier": 0.0001569612306
          }
        }
      ]
    },
    {
      "title": "GDC altitude",
      "visible": true,
      "ydomain": {
        "default": [
          350,
          400
        ],
        "bounds": [
          "0",
          1000
        ],
        "mirror": false
      },
      "y_label": "Altitude above ellipsoid (km)",
      "scale": "linear",
      "ytick_format": "d",
      "xaxis_annotation": "hidden",
      "yaxis_annotation": "visible",
      "height": 50,
      "annot_options": {
        "annot_horizontal_grid_lines": [],
        "annot_text_items": []
      },
      "margins": {
        "top": 30,
        "bottom": 10
      },
      "plot_elements": [
        {
          "title": "GDC 1 altitude",
          "visible": true,
          "plot_options": {
            "stroke": "#1f77b4",
            "stroke-width": "2",
            "stroke-opacity": "1",
            "fill": "#1f77b4",
            "fill-opacity": "1",
            "mirror_zero_x": false,
            "plot_type": "line",
            "curve_type": "linear",
            "baseline_mode": ""
          },
          "data": {
            "server": "https://data.spaceweather.knmi.nl/hapi",
            "dataset": "gdc_sat01_orbit",
            "parameter": "height",
            "time_parameter": "time",
            "cadence_alternative_datasets_mode": "x_relations",
            "refetch_interval_seconds": 86400,
            "zoom_detail_factor": 1
          },
          "data_transforms": {
            "parameter_multiplier": 0.001,
            "parameter_offset": 0,
            "parameter_offset_remove_mean": false
          }
        },
        {
          "title": "GDC 2 altitude",
          "visible": true,
          "plot_options": {
            "stroke": "#aec7e8",
            "stroke-width": "2",
            "stroke-opacity": "1",
            "fill": "#aec7e8",
            "fill-opacity": "1",
            "mirror_zero_x": false,
            "plot_type": "line",
            "curve_type": "linear",
            "baseline_mode": ""
          },
          "data": {
            "server": "https://data.spaceweather.knmi.nl/hapi",
            "dataset": "gdc_sat02_orbit",
            "parameter": "height",
            "time_parameter": "time",
            "cadence_alternative_datasets_mode": "x_relations",
            "refetch_interval_seconds": 86400,
            "zoom_detail_factor": 1
          },
          "data_transforms": {
            "parameter_multiplier": 0.001,
            "parameter_offset": 0,
            "parameter_offset_remove_mean": false
          }
        },
        {
          "title": "GDC 3 altitude",
          "visible": true,
          "plot_options": {
            "stroke": "#ff7f0e",
            "stroke-width": "2",
            "stroke-opacity": "1",
            "fill": "#ff7f0e",
            "fill-opacity": "1",
            "mirror_zero_x": false,
            "plot_type": "line",
            "curve_type": "linear",
            "baseline_mode": ""
          },
          "data": {
            "server": "https://data.spaceweather.knmi.nl/hapi",
            "dataset": "gdc_sat03_orbit",
            "parameter": "height",
            "time_parameter": "time",
            "cadence_alternative_datasets_mode": "x_relations",
            "refetch_interval_seconds": 86400,
            "zoom_detail_factor": 1
          },
          "data_transforms": {
            "parameter_multiplier": 0.001,
            "parameter_offset": 0,
            "parameter_offset_remove_mean": false
          }
        },
        {
          "title": "GDC 4 altitude",
          "visible": true,
          "plot_options": {
            "stroke": "#ffbb78",
            "stroke-width": "2",
            "stroke-opacity": "1",
            "fill": "#ffbb78",
            "fill-opacity": "1",
            "mirror_zero_x": false,
            "plot_type": "line",
            "curve_type": "linear",
            "baseline_mode": ""
          },
          "data": {
            "server": "https://data.spaceweather.knmi.nl/hapi",
            "dataset": "gdc_sat04_orbit",
            "parameter": "height",
            "time_parameter": "time",
            "cadence_alternative_datasets_mode": "x_relations",
            "refetch_interval_seconds": 86400,
            "zoom_detail_factor": 1
          },
          "data_transforms": {
            "parameter_multiplier": 0.001,
            "parameter_offset": 0,
            "parameter_offset_remove_mean": false
          }
        },
        {
          "title": "GDC 5 altitude",
          "visible": true,
          "plot_options": {
            "stroke": "#2ca02c",
            "stroke-width": "2",
            "stroke-opacity": "1",
            "fill": "#2ca02c",
            "fill-opacity": "1",
            "mirror_zero_x": false,
            "plot_type": "line",
            "curve_type": "linear",
            "baseline_mode": ""
          },
          "data": {
            "server": "https://data.spaceweather.knmi.nl/hapi",
            "dataset": "gdc_sat05_orbit",
            "parameter": "height",
            "time_parameter": "time",
            "cadence_alternative_datasets_mode": "x_relations",
            "refetch_interval_seconds": 86400,
            "zoom_detail_factor": 1
          },
          "data_transforms": {
            "parameter_multiplier": 0.001,
            "parameter_offset": 0,
            "parameter_offset_remove_mean": false
          }
        },
        {
          "title": "GDC 6 altitude",
          "visible": true,
          "plot_options": {
            "stroke": "#98df8a",
            "stroke-width": "2",
            "stroke-opacity": "1",
            "fill": "#98df8a",
            "fill-opacity": "1",
            "mirror_zero_x": false,
            "plot_type": "line",
            "curve_type": "linear",
            "baseline_mode": ""
          },
          "data": {
            "server": "https://data.spaceweather.knmi.nl/hapi",
            "dataset": "gdc_sat06_orbit",
            "parameter": "height",
            "time_parameter": "time",
            "cadence_alternative_datasets_mode": "x_relations",
            "refetch_interval_seconds": 86400,
            "zoom_detail_factor": 1
          },
          "data_transforms": {
            "parameter_multiplier": 0.001,
            "parameter_offset": 0,
            "parameter_offset_remove_mean": false
          }
        }
      ],
      "legend_visible": false
    },
    {
      "title": "GDC quasi-dipole latitude NH",
      "visible": true,
      "ydomain": {
        "default": [
          60,
          90
        ],
        "bounds": [
          -90,
          90
        ],
        "mirror": false
      },
      "y_label": "QD latitude (deg)",
      "scale": "linear",
      "ytick_format": "d",
      "xaxis_annotation": "hidden",
      "yaxis_annotation": "visible",
      "height": 50,
      "annot_options": {
        "annot_horizontal_grid_lines": [
          {
            "y": -90
          },
          {
            "y": -80
          },
          {
            "y": -70
          },
          {
            "y": -60
          },
          {
            "y": 0
          },
          {
            "y": 60
          },
          {
            "y": 70
          },
          {
            "y": 80
          },
          {
            "y": 90
          }
        ],
        "annot_text_items": []
      },
      "margins": {
        "top": 30,
        "bottom": 0
      },
      "plot_elements": [
        {
          "title": "GDC 1 qd latitude",
          "visible": true,
          "plot_options": {
            "stroke": "#1f77b4",
            "stroke-width": "2",
            "stroke-opacity": "1",
            "fill": "#1f77b4",
            "fill-opacity": "1",
            "mirror_zero_x": false,
            "plot_type": "line",
            "curve_type": "linear",
            "baseline_mode": ""
          },
          "data": {
            "server": "https://data.spaceweather.knmi.nl/hapi",
            "dataset": "gdc_sat01_orbit",
            "parameter": "lat_qd",
            "time_parameter": "time",
            "cadence_alternative_datasets_mode": "x_relations",
            "refetch_interval_seconds": 86400,
            "zoom_detail_factor": 1
          },
          "data_transforms": {
            "parameter_multiplier": 1,
            "parameter_offset": 0,
            "parameter_offset_remove_mean": false
          }
        },
        {
          "title": "GDC 2 qd latitude",
          "visible": true,
          "plot_options": {
            "stroke": "#aec7e8",
            "stroke-width": "2",
            "stroke-opacity": "1",
            "fill": "#aec7e8",
            "fill-opacity": "1",
            "mirror_zero_x": false,
            "plot_type": "line",
            "curve_type": "linear",
            "baseline_mode": ""
          },
          "data": {
            "server": "https://data.spaceweather.knmi.nl/hapi",
            "dataset": "gdc_sat02_orbit",
            "parameter": "lat_qd",
            "time_parameter": "time",
            "cadence_alternative_datasets_mode": "x_relations",
            "refetch_interval_seconds": 86400,
            "zoom_detail_factor": 1
          },
          "data_transforms": {
            "parameter_multiplier": 1,
            "parameter_offset": 0,
            "parameter_offset_remove_mean": false
          }
        },
        {
          "title": "GDC 3 qd latitude",
          "visible": true,
          "plot_options": {
            "stroke": "#ff7f0e",
            "stroke-width": "2",
            "stroke-opacity": "1",
            "fill": "#ff7f0e",
            "fill-opacity": "1",
            "mirror_zero_x": false,
            "plot_type": "line",
            "curve_type": "linear",
            "baseline_mode": ""
          },
          "data": {
            "server": "https://data.spaceweather.knmi.nl/hapi",
            "dataset": "gdc_sat03_orbit",
            "parameter": "lat_qd",
            "time_parameter": "time",
            "cadence_alternative_datasets_mode": "x_relations",
            "refetch_interval_seconds": 86400,
            "zoom_detail_factor": 1
          },
          "data_transforms": {
            "parameter_multiplier": 1,
            "parameter_offset": 0,
            "parameter_offset_remove_mean": false
          }
        },
        {
          "title": "GDC 4 qd latitude",
          "visible": true,
          "plot_options": {
            "stroke": "#ffbb78",
            "stroke-width": "2",
            "stroke-opacity": "1",
            "fill": "#ffbb78",
            "fill-opacity": "1",
            "mirror_zero_x": false,
            "plot_type": "line",
            "curve_type": "linear",
            "baseline_mode": ""
          },
          "data": {
            "server": "https://data.spaceweather.knmi.nl/hapi",
            "dataset": "gdc_sat04_orbit",
            "parameter": "lat_qd",
            "time_parameter": "time",
            "cadence_alternative_datasets_mode": "x_relations",
            "refetch_interval_seconds": 86400,
            "zoom_detail_factor": 1
          },
          "data_transforms": {
            "parameter_multiplier": 1,
            "parameter_offset": 0,
            "parameter_offset_remove_mean": false
          }
        },
        {
          "title": "GDC 5 qd latitude",
          "visible": true,
          "plot_options": {
            "stroke": "#2ca02c",
            "stroke-width": "2",
            "stroke-opacity": "1",
            "fill": "#2ca02c",
            "fill-opacity": "1",
            "mirror_zero_x": false,
            "plot_type": "line",
            "curve_type": "linear",
            "baseline_mode": ""
          },
          "data": {
            "server": "https://data.spaceweather.knmi.nl/hapi",
            "dataset": "gdc_sat05_orbit",
            "parameter": "lat_qd",
            "time_parameter": "time",
            "cadence_alternative_datasets_mode": "x_relations",
            "refetch_interval_seconds": 86400,
            "zoom_detail_factor": 1
          },
          "data_transforms": {
            "parameter_multiplier": 1,
            "parameter_offset": 0,
            "parameter_offset_remove_mean": false
          }
        },
        {
          "title": "GDC 6 qd latitude",
          "visible": true,
          "plot_options": {
            "stroke": "#98df8a",
            "stroke-width": "2",
            "stroke-opacity": "1",
            "fill": "#98df8a",
            "fill-opacity": "1",
            "mirror_zero_x": false,
            "plot_type": "line",
            "curve_type": "linear",
            "baseline_mode": ""
          },
          "data": {
            "server": "https://data.spaceweather.knmi.nl/hapi",
            "dataset": "gdc_sat06_orbit",
            "parameter": "lat_qd",
            "time_parameter": "time",
            "cadence_alternative_datasets_mode": "x_relations",
            "refetch_interval_seconds": 86400,
            "zoom_detail_factor": 1
          },
          "data_transforms": {
            "parameter_multiplier": 1,
            "parameter_offset": 0,
            "parameter_offset_remove_mean": false
          }
        }
      ],
      "legend_visible": false
    },
    {
      "title": "GDC quasi-dipole latitude SH",
      "visible": true,
      "ydomain": {
        "default": [
          -90,
          -60
        ],
        "bounds": [
          -90,
          90
        ],
        "mirror": false
      },
      "y_label": "QD latitude (deg)",
      "scale": "linear",
      "ytick_format": "d",
      "xaxis_annotation": "hidden",
      "yaxis_annotation": "visible",
      "height": 50,
      "annot_options": {
        "annot_horizontal_grid_lines": [
          {
            "y": -90
          },
          {
            "y": -80
          },
          {
            "y": -70
          },
          {
            "y": -60
          },
          {
            "y": 0
          },
          {
            "y": 60
          },
          {
            "y": 70
          },
          {
            "y": 80
          },
          {
            "y": 90
          }
        ],
        "annot_text_items": []
      },
      "margins": {
        "top": 0,
        "bottom": 20
      },
      "plot_elements": [
        {
          "title": "GDC 1 qd latitude",
          "visible": true,
          "plot_options": {
            "stroke": "#1f77b4",
            "stroke-width": "2",
            "stroke-opacity": "1",
            "fill": "#1f77b4",
            "fill-opacity": "1",
            "mirror_zero_x": false,
            "plot_type": "line",
            "curve_type": "linear",
            "baseline_mode": ""
          },
          "data": {
            "server": "https://data.spaceweather.knmi.nl/hapi",
            "dataset": "gdc_sat01_orbit",
            "parameter": "lat_qd",
            "time_parameter": "time",
            "cadence_alternative_datasets_mode": "x_relations",
            "refetch_interval_seconds": 86400,
            "zoom_detail_factor": 1
          },
          "data_transforms": {
            "parameter_multiplier": 1,
            "parameter_offset": 0,
            "parameter_offset_remove_mean": false
          }
        },
        {
          "title": "GDC 2 qd latitude",
          "visible": true,
          "plot_options": {
            "stroke": "#aec7e8",
            "stroke-width": "2",
            "stroke-opacity": "1",
            "fill": "#aec7e8",
            "fill-opacity": "1",
            "mirror_zero_x": false,
            "plot_type": "line",
            "curve_type": "linear",
            "baseline_mode": ""
          },
          "data": {
            "server": "https://data.spaceweather.knmi.nl/hapi",
            "dataset": "gdc_sat02_orbit",
            "parameter": "lat_qd",
            "time_parameter": "time",
            "cadence_alternative_datasets_mode": "x_relations",
            "refetch_interval_seconds": 86400,
            "zoom_detail_factor": 1
          },
          "data_transforms": {
            "parameter_multiplier": 1,
            "parameter_offset": 0,
            "parameter_offset_remove_mean": false
          }
        },
        {
          "title": "GDC 3 qd latitude",
          "visible": true,
          "plot_options": {
            "stroke": "#ff7f0e",
            "stroke-width": "2",
            "stroke-opacity": "1",
            "fill": "#ff7f0e",
            "fill-opacity": "1",
            "mirror_zero_x": false,
            "plot_type": "line",
            "curve_type": "linear",
            "baseline_mode": ""
          },
          "data": {
            "server": "https://data.spaceweather.knmi.nl/hapi",
            "dataset": "gdc_sat03_orbit",
            "parameter": "lat_qd",
            "time_parameter": "time",
            "cadence_alternative_datasets_mode": "x_relations",
            "refetch_interval_seconds": 86400,
            "zoom_detail_factor": 1
          },
          "data_transforms": {
            "parameter_multiplier": 1,
            "parameter_offset": 0,
            "parameter_offset_remove_mean": false
          }
        },
        {
          "title": "GDC 4 qd latitude",
          "visible": true,
          "plot_options": {
            "stroke": "#ffbb78",
            "stroke-width": "2",
            "stroke-opacity": "1",
            "fill": "#ffbb78",
            "fill-opacity": "1",
            "mirror_zero_x": false,
            "plot_type": "line",
            "curve_type": "linear",
            "baseline_mode": ""
          },
          "data": {
            "server": "https://data.spaceweather.knmi.nl/hapi",
            "dataset": "gdc_sat04_orbit",
            "parameter": "lat_qd",
            "time_parameter": "time",
            "cadence_alternative_datasets_mode": "x_relations",
            "refetch_interval_seconds": 86400,
            "zoom_detail_factor": 1
          },
          "data_transforms": {
            "parameter_multiplier": 1,
            "parameter_offset": 0,
            "parameter_offset_remove_mean": false
          }
        },
        {
          "title": "GDC 5 qd latitude",
          "visible": true,
          "plot_options": {
            "stroke": "#2ca02c",
            "stroke-width": "2",
            "stroke-opacity": "1",
            "fill": "#2ca02c",
            "fill-opacity": "1",
            "mirror_zero_x": false,
            "plot_type": "line",
            "curve_type": "linear",
            "baseline_mode": ""
          },
          "data": {
            "server": "https://data.spaceweather.knmi.nl/hapi",
            "dataset": "gdc_sat05_orbit",
            "parameter": "lat_qd",
            "time_parameter": "time",
            "cadence_alternative_datasets_mode": "x_relations",
            "refetch_interval_seconds": 86400,
            "zoom_detail_factor": 1
          },
          "data_transforms": {
            "parameter_multiplier": 1,
            "parameter_offset": 0,
            "parameter_offset_remove_mean": false
          }
        },
        {
          "title": "GDC 6 qd latitude",
          "visible": true,
          "plot_options": {
            "stroke": "#98df8a",
            "stroke-width": "2",
            "stroke-opacity": "1",
            "fill": "#98df8a",
            "fill-opacity": "1",
            "mirror_zero_x": false,
            "plot_type": "line",
            "curve_type": "linear",
            "baseline_mode": ""
          },
          "data": {
            "server": "https://data.spaceweather.knmi.nl/hapi",
            "dataset": "gdc_sat06_orbit",
            "parameter": "lat_qd",
            "time_parameter": "time",
            "cadence_alternative_datasets_mode": "x_relations",
            "refetch_interval_seconds": 86400,
            "zoom_detail_factor": 1
          },
          "data_transforms": {
            "parameter_multiplier": 1,
            "parameter_offset": 0,
            "parameter_offset_remove_mean": false
          }
        }
      ],
      "legend_visible": false
    },
    {
      "title": "GDC Magnetic Local Time",
      "visible": true,
      "ydomain": {
        "default": [
          0,
          24
        ],
        "bounds": [
          0,
          24
        ],
        "mirror": false
      },
      "y_label": "MLT (h)",
      "scale": "linear",
      "ytick_format": "d",
      "xaxis_annotation": "visible",
      "yaxis_annotation": "visible",
      "height": 50,
      "annot_options": {
        "annot_horizontal_grid_lines": [
          {
            "y": 0
          },
          {
            "y": 6
          },
          {
            "y": 12
          },
          {
            "y": 18
          },
          {
            "y": 24
          }
        ],
        "annot_text_items": []
      },
      "margins": {
        "top": 10,
        "bottom": 40
      },
      "plot_elements": [
        {
          "title": "GDC 1 MLT",
          "visible": true,
          "plot_options": {
            "stroke": "#1f77b4",
            "stroke-width": "2",
            "stroke-opacity": "1",
            "fill": "#1f77b4",
            "fill-opacity": "1",
            "mirror_zero_x": false,
            "plot_type": "line",
            "curve_type": "linear",
            "baseline_mode": ""
          },
          "data": {
            "server": "https://data.spaceweather.knmi.nl/hapi",
            "dataset": "gdc_sat01_orbit",
            "parameter": "mlt",
            "time_parameter": "time",
            "cadence_alternative_datasets_mode": "x_relations",
            "refetch_interval_seconds": 86400,
            "zoom_detail_factor": 1
          },
          "data_transforms": {
            "parameter_multiplier": 1,
            "parameter_offset": 0,
            "parameter_offset_remove_mean": false
          }
        },
        {
          "title": "GDC 2 MLT",
          "visible": true,
          "plot_options": {
            "stroke": "#aec7e8",
            "stroke-width": "2",
            "stroke-opacity": "1",
            "fill": "#aec7e8",
            "fill-opacity": "1",
            "mirror_zero_x": false,
            "plot_type": "line",
            "curve_type": "linear",
            "baseline_mode": ""
          },
          "data": {
            "server": "https://data.spaceweather.knmi.nl/hapi",
            "dataset": "gdc_sat02_orbit",
            "parameter": "mlt",
            "time_parameter": "time",
            "cadence_alternative_datasets_mode": "x_relations",
            "refetch_interval_seconds": 86400,
            "zoom_detail_factor": 1
          },
          "data_transforms": {
            "parameter_multiplier": 1,
            "parameter_offset": 0,
            "parameter_offset_remove_mean": false
          }
        },
        {
          "title": "GDC 3 MLT",
          "visible": true,
          "plot_options": {
            "stroke": "#ff7f0e",
            "stroke-width": "2",
            "stroke-opacity": "1",
            "fill": "#ff7f0e",
            "fill-opacity": "1",
            "mirror_zero_x": false,
            "plot_type": "line",
            "curve_type": "linear",
            "baseline_mode": ""
          },
          "data": {
            "server": "https://data.spaceweather.knmi.nl/hapi",
            "dataset": "gdc_sat03_orbit",
            "parameter": "mlt",
            "time_parameter": "time",
            "cadence_alternative_datasets_mode": "x_relations",
            "refetch_interval_seconds": 86400,
            "zoom_detail_factor": 1
          },
          "data_transforms": {
            "parameter_multiplier": 1,
            "parameter_offset": 0,
            "parameter_offset_remove_mean": false
          }
        },
        {
          "title": "GDC 4 MLT",
          "visible": true,
          "plot_options": {
            "stroke": "#ffbb78",
            "stroke-width": "2",
            "stroke-opacity": "1",
            "fill": "#ffbb78",
            "fill-opacity": "1",
            "mirror_zero_x": false,
            "plot_type": "line",
            "curve_type": "linear",
            "baseline_mode": ""
          },
          "data": {
            "server": "https://data.spaceweather.knmi.nl/hapi",
            "dataset": "gdc_sat04_orbit",
            "parameter": "mlt",
            "time_parameter": "time",
            "cadence_alternative_datasets_mode": "x_relations",
            "refetch_interval_seconds": 86400,
            "zoom_detail_factor": 1
          },
          "data_transforms": {
            "parameter_multiplier": 1,
            "parameter_offset": 0,
            "parameter_offset_remove_mean": false
          }
        },
        {
          "title": "GDC 5 MLT",
          "visible": true,
          "plot_options": {
            "stroke": "#2ca02c",
            "stroke-width": "2",
            "stroke-opacity": "1",
            "fill": "#2ca02c",
            "fill-opacity": "1",
            "mirror_zero_x": false,
            "plot_type": "line",
            "curve_type": "linear",
            "baseline_mode": ""
          },
          "data": {
            "server": "https://data.spaceweather.knmi.nl/hapi",
            "dataset": "gdc_sat05_orbit",
            "parameter": "mlt",
            "time_parameter": "time",
            "cadence_alternative_datasets_mode": "x_relations",
            "refetch_interval_seconds": 86400,
            "zoom_detail_factor": 1
          },
          "data_transforms": {
            "parameter_multiplier": 1,
            "parameter_offset": 0,
            "parameter_offset_remove_mean": false
          }
        },
        {
          "title": "GDC 6 MLT",
          "visible": true,
          "plot_options": {
            "stroke": "#98df8a",
            "stroke-width": "2",
            "stroke-opacity": "1",
            "fill": "#98df8a",
            "fill-opacity": "1",
            "mirror_zero_x": false,
            "plot_type": "line",
            "curve_type": "linear",
            "baseline_mode": ""
          },
          "data": {
            "server": "https://data.spaceweather.knmi.nl/hapi",
            "dataset": "gdc_sat06_orbit",
            "parameter": "mlt",
            "time_parameter": "time",
            "cadence_alternative_datasets_mode": "x_relations",
            "refetch_interval_seconds": 86400,
            "zoom_detail_factor": 1
          },
          "data_transforms": {
            "parameter_multiplier": 1,
            "parameter_offset": 0,
            "parameter_offset_remove_mean": false
          }
        }
      ],
      "legend_visible": false
    }
  ]
}